{
	"version": 1,
	"changelists": [
		{
			"guid": "00000000000000000000000000000000",
			"description": "Default Uncontrolled Changelist",
			"files": [
				"D:/UnrealEngine/Pong/Content/StarterContent/Blueprints/Blueprint_CeilingLight.uasset",
				"D:/UnrealEngine/Pong/Content/PongMap.umap",
				"D:/UnrealEngine/Pong/Content/PongGM.uasset",
				"D:/UnrealEngine/Pong/Content/PlayerControls.uasset",
				"D:/UnrealEngine/Pong/Content/PlayerPad.uasset",
				"D:/UnrealEngine/Pong/Content/PongBall.uasset",
				"D:/UnrealEngine/Pong/Content/Wall_BP.uasset",
				"D:/UnrealEngine/Pong/Content/EnemyPad.uasset",
				"D:/UnrealEngine/Pong/Content/PongHUD.uasset",
				"D:/UnrealEngine/Pong/Content/GoalZone.uasset",
				"D:/UnrealEngine/Pong/Content/Sounds/ping-pong-classic-arcade-game-116818_01.uasset",
				"D:/UnrealEngine/Pong/Content/Sounds/ping_pong_8bit_plop.uasset",
				"D:/UnrealEngine/Pong/Content/Sounds/ping_pong_8bit_peeeeeep.uasset",
				"D:/UnrealEngine/Pong/Content/Sounds/ping_pong_8bit_beeep.uasset",
				"D:/UnrealEngine/Pong/Content/Sounds/BackgroundMusic.uasset",
				"D:/UnrealEngine/Pong/Content/Sounds/PongBeep.uasset",
				"D:/UnrealEngine/Pong/Content/Sounds/PongPlop.uasset",
				"D:/UnrealEngine/Pong/Content/Sounds/PongGoal.uasset",
				"D:/UnrealEngine/Pong/Content/PongMenu.umap",
				"D:/UnrealEngine/Pong/Content/MenuUMG.uasset",
				"D:/UnrealEngine/Pong/Content/VioletyDreams-WyEOA.uasset",
				"D:/UnrealEngine/Pong/Content/VioletyDreams-WyEOA_Font.uasset",
				"D:/UnrealEngine/Pong/Content/MenuFC.uasset",
				"D:/UnrealEngine/Pong/Content/MenuGM.uasset"
			]
		}
	]
}